<?xml version='1.0' encoding='UTF-8'?>
<glyph name="fraction" format="2">
  <advance width="139"/>
  <unicode hex="2044"/>
  <outline>
    <contour>
      <point x="284" y="698" type="line"/>
      <point x="350" y="698" type="line"/>
      <point x="-143" y="0" type="line"/>
      <point x="-209" y="0" type="line"/>
    </contour>
  </outline>
  <lib>
    <dict>
      <key>public.truetype.instructions</key>
      <dict>
        <key>assembly</key>
        <string>
SVTCA[0]	/* SetFPVectorToAxis */
PUSHW[ ]	/* 1 value pushed */
0
RCVT[ ]	/* ReadCVT */
IF[ ]	/* If */
  PUSHW[ ]	/* 1 value pushed */
  0
  MDAP[1]	/* MoveDirectAbsPt */
ELSE[ ]	/* Else */
  PUSHW[ ]	/* 2 values pushed */
  0 28
  MIAP[0]	/* MoveIndirectAbsPt */
EIF[ ]	/* EndIf */
PUSHW[ ]	/* 1 value pushed */
0
RCVT[ ]	/* ReadCVT */
IF[ ]	/* If */
  PUSHW[ ]	/* 1 value pushed */
  3
  MDAP[1]	/* MoveDirectAbsPt */
ELSE[ ]	/* Else */
  PUSHW[ ]	/* 2 values pushed */
  3 18
  MIAP[0]	/* MoveIndirectAbsPt */
EIF[ ]	/* EndIf */
IUP[0]	/* InterpolateUntPts */
IUP[1]	/* InterpolateUntPts */
</string>
        <key>formatVersion</key>
        <string>1</string>
        <key>id</key>
        <string>w139l284+698l350+698l-143+0l-209+0|</string>
      </dict>
    </dict>
  </lib>
</glyph>
