<?xml version='1.0' encoding='UTF-8'?>
<glyph name="uacute" format="2">
  <advance width="624"/>
  <unicode hex="00FA"/>
  <outline>
    <component base="u" identifier="component0"/>
    <component base="acute" xOffset="3" identifier="component1"/>
  </outline>
  <lib>
    <dict>
      <key>public.objectLibs</key>
      <dict>
        <key>component0</key>
        <dict>
          <key>public.truetype.roundOffsetToGrid</key>
          <true/>
          <key>public.truetype.useMyMetrics</key>
          <true/>
        </dict>
        <key>component1</key>
        <dict>
          <key>public.truetype.roundOffsetToGrid</key>
          <true/>
          <key>public.truetype.useMyMetrics</key>
          <false/>
        </dict>
      </dict>
      <key>public.truetype.overlap</key>
      <false/>
    </dict>
  </lib>
</glyph>
