<?xml version='1.0' encoding='UTF-8'?>
<glyph name="ygrave" format="2">
  <advance width="541"/>
  <unicode hex="1EF3"/>
  <outline>
    <contour>
      <point x="123" y="-212" type="curve" smooth="yes"/>
      <point x="199" y="-212"/>
      <point x="246" y="-152"/>
      <point x="275" y="-80" type="curve" smooth="yes"/>
      <point x="486" y="468" type="line"/>
      <point x="537" y="468" type="line"/>
      <point x="537" y="518" type="line"/>
      <point x="353" y="518" type="line"/>
      <point x="353" y="468" type="line"/>
      <point x="424" y="468" type="line"/>
      <point x="292" y="99" type="line"/>
      <point x="288" y="99" type="line"/>
      <point x="156" y="468" type="line"/>
      <point x="227" y="468" type="line"/>
      <point x="227" y="518" type="line"/>
      <point x="3" y="518" type="line"/>
      <point x="3" y="468" type="line"/>
      <point x="54" y="468" type="line"/>
      <point x="243" y="-22" type="line"/>
      <point x="224" y="-73" type="line" smooth="yes"/>
      <point x="199" y="-141"/>
      <point x="165" y="-171"/>
      <point x="130" y="-171" type="curve" smooth="yes"/>
      <point x="123" y="-171"/>
      <point x="115" y="-170"/>
      <point x="107" y="-168" type="curve"/>
      <point x="107" y="-164" type="line"/>
      <point x="119" y="-159"/>
      <point x="131" y="-144"/>
      <point x="131" y="-123" type="curve" smooth="yes"/>
      <point x="131" y="-90"/>
      <point x="112" y="-68"/>
      <point x="79" y="-68" type="curve" smooth="yes"/>
      <point x="40" y="-68"/>
      <point x="20" y="-91"/>
      <point x="20" y="-130" type="curve" smooth="yes"/>
      <point x="20" y="-177"/>
      <point x="52" y="-212"/>
    </contour>
    <contour>
      <point x="296" y="584" type="line"/>
      <point x="327" y="600" type="line"/>
      <point x="252" y="783" type="line"/>
      <point x="164" y="740" type="line"/>
    </contour>
  </outline>
</glyph>
